\relax 
\providecommand\hyper@newdestlabel[2]{}
\providecommand\HyperFirstAtBeginDocument{\AtBeginDocument}
\HyperFirstAtBeginDocument{\ifx\hyper@anchor\@undefined
\global\let\oldcontentsline\contentsline
\gdef\contentsline#1#2#3#4{\oldcontentsline{#1}{#2}{#3}}
\global\let\oldnewlabel\newlabel
\gdef\newlabel#1#2{\newlabelxx{#1}#2}
\gdef\newlabelxx#1#2#3#4#5#6{\oldnewlabel{#1}{{#2}{#3}}}
\AtEndDocument{\ifx\hyper@anchor\@undefined
\let\contentsline\oldcontentsline
\let\newlabel\oldnewlabel
\fi}
\fi}
\global\let\hyper@last\relax 
\gdef\HyperFirstAtBeginDocument#1{#1}
\providecommand\HyField@AuxAddToFields[1]{}
\providecommand\HyField@AuxAddToCoFields[2]{}
\providecommand\babel@aux[2]{}
\@nameuse{bbl@beforestart}
\catcode `"\active 
\babel@aux{german}{}
\@writefile{nav}{\headcommand {\slideentry {0}{0}{1}{1/1}{}{0}}}
\@writefile{nav}{\headcommand {\beamer@framepages {1}{1}}}
\@writefile{nav}{\headcommand {\slideentry {0}{0}{2}{2/2}{}{0}}}
\@writefile{nav}{\headcommand {\beamer@framepages {2}{2}}}
\@writefile{toc}{\beamer@sectionintoc {1}{Django und der Django-Admin}{3}{0}{1}}
\@writefile{nav}{\headcommand {\beamer@sectionpages {1}{2}}}
\@writefile{nav}{\headcommand {\beamer@subsectionpages {1}{2}}}
\@writefile{nav}{\headcommand {\sectionentry {1}{Django und der Django-Admin}{3}{Django und der Django-Admin}{0}}}
\@writefile{nav}{\headcommand {\slideentry {1}{0}{1}{3/3}{}{0}}}
\@writefile{nav}{\headcommand {\beamer@framepages {3}{3}}}
\@writefile{nav}{\headcommand {\slideentry {1}{0}{2}{4/4}{}{0}}}
\@writefile{nav}{\headcommand {\beamer@framepages {4}{4}}}
\@writefile{toc}{\beamer@sectionintoc {2}{Vorstellung Applikation und Datenmodell}{5}{0}{2}}
\@writefile{nav}{\headcommand {\beamer@sectionpages {3}{4}}}
\@writefile{nav}{\headcommand {\beamer@subsectionpages {3}{4}}}
\@writefile{nav}{\headcommand {\sectionentry {2}{Vorstellung Applikation und Datenmodell}{5}{Vorstellung Applikation und Datenmodell}{0}}}
\@writefile{nav}{\headcommand {\slideentry {2}{0}{1}{5/5}{}{0}}}
\@writefile{nav}{\headcommand {\beamer@framepages {5}{5}}}
\@writefile{nav}{\headcommand {\slideentry {2}{0}{2}{6/6}{}{0}}}
\@writefile{nav}{\headcommand {\beamer@framepages {6}{6}}}
\@writefile{toc}{\beamer@sectionintoc {3}{Django Admin}{7}{0}{3}}
\@writefile{nav}{\headcommand {\beamer@sectionpages {5}{6}}}
\@writefile{nav}{\headcommand {\beamer@subsectionpages {5}{6}}}
\@writefile{nav}{\headcommand {\sectionentry {3}{Django Admin}{7}{Django Admin}{0}}}
\@writefile{nav}{\headcommand {\slideentry {3}{0}{1}{7/7}{}{0}}}
\@writefile{nav}{\headcommand {\beamer@framepages {7}{7}}}
\@writefile{nav}{\headcommand {\slideentry {3}{0}{2}{8/8}{}{0}}}
\@writefile{nav}{\headcommand {\beamer@framepages {8}{8}}}
\@writefile{nav}{\headcommand {\slideentry {3}{0}{3}{9/9}{}{0}}}
\@writefile{nav}{\headcommand {\beamer@framepages {9}{9}}}
\@writefile{toc}{\beamer@sectionintoc {4}{Weiterführende Themen}{10}{0}{4}}
\@writefile{nav}{\headcommand {\beamer@sectionpages {7}{9}}}
\@writefile{nav}{\headcommand {\beamer@subsectionpages {7}{9}}}
\@writefile{nav}{\headcommand {\sectionentry {4}{Weiterführende Themen}{10}{Weiterführende Themen}{0}}}
\@writefile{nav}{\headcommand {\slideentry {4}{0}{1}{10/10}{}{0}}}
\@writefile{nav}{\headcommand {\beamer@framepages {10}{10}}}
\newlabel{fig:custom-buttons}{{11}{11}{Weiterführende Themen}{Doc-Start}{}}
\@writefile{snm}{\beamer@slide {fig:custom-buttons}{11}}
\newlabel{fig:admin-actions}{{11}{11}{Weiterführende Themen}{Doc-Start}{}}
\@writefile{snm}{\beamer@slide {fig:admin-actions}{11}}
\@writefile{nav}{\headcommand {\slideentry {4}{0}{2}{11/11}{}{0}}}
\@writefile{nav}{\headcommand {\beamer@framepages {11}{11}}}
\newlabel{fig:custom-queryset}{{12}{12}{Weiterführende Themen}{Doc-Start}{}}
\@writefile{snm}{\beamer@slide {fig:custom-queryset}{12}}
\newlabel{fig:theme-material}{{12}{12}{Weiterführende Themen}{Doc-Start}{}}
\@writefile{snm}{\beamer@slide {fig:theme-material}{12}}
\@writefile{nav}{\headcommand {\slideentry {4}{0}{3}{12/12}{}{0}}}
\@writefile{nav}{\headcommand {\beamer@framepages {12}{12}}}
\@writefile{nav}{\headcommand {\slideentry {4}{0}{4}{13/13}{}{0}}}
\@writefile{nav}{\headcommand {\beamer@framepages {13}{13}}}
\@writefile{nav}{\headcommand {\beamer@partpages {1}{13}}}
\@writefile{nav}{\headcommand {\beamer@subsectionpages {10}{13}}}
\@writefile{nav}{\headcommand {\beamer@sectionpages {10}{13}}}
\@writefile{nav}{\headcommand {\beamer@documentpages {13}}}
\@writefile{nav}{\headcommand {\gdef \inserttotalframenumber {13}}}
\gdef \@abspage@last{13}
