\babel@toc {german}{}
\beamer@sectionintoc {1}{Django und der Django-Admin}{3}{0}{1}
\beamer@sectionintoc {2}{Vorstellung Applikation und Datenmodell}{5}{0}{2}
\beamer@sectionintoc {3}{Django Admin}{7}{0}{3}
\beamer@sectionintoc {4}{Weiterführende Themen}{10}{0}{4}
